{
    "emptyTable":     "ไม่พบรายการ...",
    "info":           "แสดงรายการ _START_ ถึง _END_ จากทั้งหมด _TOTAL_ รายการ",
    "infoEmpty":      "แสดงรายการ 0 ถึง 0 จากทั้งหมด 0 รายการ",
    "infoFiltered":   "<br />(กรองจากทั้งหมด _MAX_ total รายการ)",
    "infoPostFix":    "",
    "thousands":      ",",
    "lengthMenu":     "แสดง _MENU_ รายการ",
    "loadingRecords": "กำลังโหลด...",
    "processing":     "กำลังประมวลผล...",
    "search":         "ค้นหา:",
    "zeroRecords":    "ไม่พบรายการ ที่ต้องการ",
    "paginate": {
        "first":      "หน้าแรก",
        "last":       "สุดท้าย",
        "next":       "ถัดไป",
        "previous":   "ก่อนหน้า"
    },
    "aria": {
        "sortAscending":  ": activate to sort column ascending",
        "sortDescending": ": activate to sort column descending"
    }
}